%YAML 1.1
%TAG !u! tag:unity3d.com,2011:
--- !u!114 &11400000
MonoBehaviour:
  m_ObjectHideFlags: 0
  m_CorrespondingSourceObject: {fileID: 0}
  m_PrefabInstance: {fileID: 0}
  m_PrefabAsset: {fileID: 0}
  m_GameObject: {fileID: 0}
  m_Enabled: 1
  m_EditorHideFlags: 0
  m_Script: {fileID: 11500000, guid: 384343624c9003d4e881882da95ddcc5, type: 3}
  m_Name: ColorData
  m_EditorClassIdentifier: 
  colors:
  - colorType: 0
    color: {r: 1, g: 0, b: 0, a: 1}
  - colorType: 1
    color: {r: 0.990566, g: 0.9641601, b: 0.4149163, a: 1}
  - colorType: 2
    color: {r: 0, g: 0.9092319, b: 1, a: 1}
  - colorType: 3
    color: {r: 1, g: 0.15471691, b: 0.8622881, a: 1}
  - colorType: 4
    color: {r: 1, g: 1, b: 1, a: 1}
  - colorType: 5
    color: {r: 1, g: 0.40580982, b: 0, a: 1}
  - colorType: 6
    color: {r: 0.11698109, g: 1, b: 0.27374032, a: 1}
